custom/img/15.jpg
custom/img/16.jpg
custom/img/18.jpg
custom/img/14.jpg
custom/img/07.jpg
custom/img/04.jpg
custom/img/12.jpg
custom/img/13.jpg
custom/img/08.jpg
custom/img/17.jpg
custom/img/06.jpg
custom/img/10.jpg
custom/img/02.jpg
custom/img/01.jpg
custom/img/09.jpg
custom/img/11.jpg
custom/img/05.jpg
custom/img/IMG_20190402_183819.jpg
custom/img/IMG_20190402_183822.jpg
custom/img/IMG_20190402_183825.jpg
custom/img/IMG_20190402_183829.jpg
custom/img/IMG_20190402_183848.jpg
custom/img/IMG_20190402_183855.jpg
custom/img/IMG_20190402_183900.jpg
custom/img/IMG_20190403_115246.jpg
custom/img/IMG_20190403_115534.jpg
custom/img/IMG_20190403_115550.jpg
custom/img/IMG_20190402_183857.jpg
custom/img/IMG_20190402_183852.jpg
custom/img/1200-8009-dragonfly-photo1.jpg
